{
	"info": {
		"_postman_id": "61657ff4-6f8c-43a2-b74e-19ae45a3b338",
		"name": "MoviesAPI",
		"schema": "https://schema.getpostman.com/json/collection/v2.1.0/collection.json"
	},
	"item": [
		{
			"name": "Movies",
			"item": [
				{
					"name": "getMovies",
					"request": {
						"method": "GET",
						"header": [],
						"url": {
							"raw": "{{host}}/movies/",
							"host": [
								"{{host}}"
							],
							"path": [
								"movies",
								""
							]
						}
					},
					"response": []
				},
				{
					"name": "createMovie",
					"request": {
						"method": "POST",
						"header": [],
						"body": {
							"mode": "raw",
							"raw": "{\n    \"name\": \"Avatar\",\n    \"startTime\": \"2022-06-09T00:00:00.000Z\",\n    \"time\": \"2022-06-10T00:00:00.000Z\",\n    \"evalutate\": \"10\",\n    \"poster\": \"\",\n    \"trailer\": \"\"\n}",
							"options": {
								"raw": {
									"language": "json"
								}
							}
						},
						"url": {
							"raw": "{{host}}/movies/",
							"host": [
								"{{host}}"
							],
							"path": [
								"movies",
								""
							]
						}
					},
					"response": []
				},
				{
					"name": "editMovie",
					"request": {
						"method": "POST",
						"header": [],
						"body": {
							"mode": "raw",
							"raw": "{\n    \"name\": \"Avatar2\",\n    \"startTime\": \"2022-06-09T00:00:00.000Z\",\n    \"time\": \"2022-06-10T00:00:00.000Z\",\n    \"evalutate\": \"10\",\n    \"poster\": \"\",\n    \"trailer\": \"\"\n}",
							"options": {
								"raw": {
									"language": "json"
								}
							}
						},
						"url": {
							"raw": "{{host}}/movies/?id=7",
							"host": [
								"{{host}}"
							],
							"path": [
								"movies",
								""
							],
							"query": [
								{
									"key": "id",
									"value": "7"
								}
							]
						}
					},
					"response": []
				},
				{
					"name": "deleteMovie",
					"request": {
						"method": "DELETE",
						"header": [],
						"url": {
							"raw": "{{host}}/movies/?id=7",
							"host": [
								"{{host}}"
							],
							"path": [
								"movies",
								""
							],
							"query": [
								{
									"key": "id",
									"value": "7"
								}
							]
						}
					},
					"response": []
				},
				{
					"name": "editMovie",
					"request": {
						"method": "PUT",
						"header": [],
						"body": {
							"mode": "raw",
							"raw": "{\n    \"name\": \"Avatar2\",\n    \"startTime\": \"2022-06-09T00:00:00.000Z\",\n    \"time\": \"2022-06-10T00:00:00.000Z\",\n    \"evalutate\": \"10\",\n    \"poster\": \"\",\n    \"trailer\": \"\"\n}",
							"options": {
								"raw": {
									"language": "json"
								}
							}
						},
						"url": {
							"raw": "{{host}}/movies/?id=7",
							"host": [
								"{{host}}"
							],
							"path": [
								"movies",
								""
							],
							"query": [
								{
									"key": "id",
									"value": "7"
								}
							]
						}
					},
					"response": []
				},
				{
					"name": "getBanners",
					"request": {
						"method": "GET",
						"header": [],
						"url": {
							"raw": "{{host}}/movies/banners/",
							"host": [
								"{{host}}"
							],
							"path": [
								"movies",
								"banners",
								""
							]
						}
					},
					"response": []
				},
				{
					"name": "searchMovies",
					"request": {
						"method": "GET",
						"header": [],
						"url": {
							"raw": "{{host}}/movies/search?keywords=Batman&page=1&size=5",
							"host": [
								"{{host}}"
							],
							"path": [
								"movies",
								"search"
							],
							"query": [
								{
									"key": "keywords",
									"value": "Batman"
								},
								{
									"key": "page",
									"value": "1"
								},
								{
									"key": "size",
									"value": "5"
								}
							]
						}
					},
					"response": []
				},
				{
					"name": "searchMoviesByDate",
					"request": {
						"method": "GET",
						"header": [],
						"url": {
							"raw": "{{host}}/movies/search/date?fromDate=2022-06-09T00:00:00.000Z&toDate=2022-07-09T00:00:00.000Z",
							"host": [
								"{{host}}"
							],
							"path": [
								"movies",
								"search",
								"date"
							],
							"query": [
								{
									"key": "fromDate",
									"value": "2022-06-09T00:00:00.000Z"
								},
								{
									"key": "toDate",
									"value": "2022-07-09T00:00:00.000Z"
								}
							]
						}
					},
					"response": []
				}
			]
		},
		{
			"name": "User",
			"item": [
				{
					"name": "validateToken",
					"protocolProfileBehavior": {
						"disableBodyPruning": true
					},
					"request": {
						"method": "GET",
						"header": [],
						"body": {
							"mode": "raw",
							"raw": "{\n    \"token\": \"\"\n}",
							"options": {
								"raw": {
									"language": "json"
								}
							}
						},
						"url": {
							"raw": "{{host}}/users",
							"host": [
								"{{host}}"
							],
							"path": [
								"users"
							]
						}
					},
					"response": []
				},
				{
					"name": "getUsers",
					"protocolProfileBehavior": {
						"disableBodyPruning": true
					},
					"request": {
						"method": "GET",
						"header": [],
						"body": {
							"mode": "raw",
							"raw": "{\n    \n}",
							"options": {
								"raw": {
									"language": "json"
								}
							}
						},
						"url": {
							"raw": "{{host}}/users",
							"host": [
								"{{host}}"
							],
							"path": [
								"users"
							]
						}
					},
					"response": []
				},
				{
					"name": "editUser",
					"request": {
						"method": "PUT",
						"header": [],
						"body": {
							"mode": "raw",
							"raw": "{\n    \"name\": null,\n    \"email\": null,\n    \"password\": null,\n    \"phone\": \"0123456789\",\n    \"roleId\": null\n}",
							"options": {
								"raw": {
									"language": "json"
								}
							}
						},
						"url": {
							"raw": "{{host}}/users?userId=2",
							"host": [
								"{{host}}"
							],
							"path": [
								"users"
							],
							"query": [
								{
									"key": "userId",
									"value": "2"
								}
							]
						}
					},
					"response": []
				},
				{
					"name": "getRoles",
					"protocolProfileBehavior": {
						"disableBodyPruning": true
					},
					"request": {
						"method": "GET",
						"header": [],
						"body": {
							"mode": "raw",
							"raw": "{\n    \n}",
							"options": {
								"raw": {
									"language": "json"
								}
							}
						},
						"url": {
							"raw": "{{host}}/users/roles",
							"host": [
								"{{host}}"
							],
							"path": [
								"users",
								"roles"
							]
						}
					},
					"response": []
				},
				{
					"name": "searchUser",
					"protocolProfileBehavior": {
						"disableBodyPruning": true
					},
					"request": {
						"method": "GET",
						"header": [],
						"body": {
							"mode": "raw",
							"raw": "{\n    \n}",
							"options": {
								"raw": {
									"language": "json"
								}
							}
						},
						"url": {
							"raw": "{{host}}/users/search?keywords=admin&page=1&size=5",
							"host": [
								"{{host}}"
							],
							"path": [
								"users",
								"search"
							],
							"query": [
								{
									"key": "keywords",
									"value": "admin"
								},
								{
									"key": "page",
									"value": "1"
								},
								{
									"key": "size",
									"value": "5"
								}
							]
						}
					},
					"response": []
				},
				{
					"name": "login",
					"event": [
						{
							"listen": "test",
							"script": {
								"exec": [
									"response = pm.response.json();",
									"pm.environment.set('token', response.data.token);"
								],
								"type": "text/javascript"
							}
						}
					],
					"request": {
						"method": "POST",
						"header": [],
						"body": {
							"mode": "raw",
							"raw": "{\n    \"phone\": \"0123456781\",\n    \"password\": \"user123\"\n}",
							"options": {
								"raw": {
									"language": "json"
								}
							}
						},
						"url": {
							"raw": "{{host}}/users/login",
							"host": [
								"{{host}}"
							],
							"path": [
								"users",
								"login"
							]
						}
					},
					"response": []
				},
				{
					"name": "register",
					"request": {
						"method": "POST",
						"header": [],
						"body": {
							"mode": "raw",
							"raw": "{\n    \"name\": \"demo2\",\n    \"email\": \"demo2@email.com\",\n    \"phone\": \"028282821\",\n    \"password\": \"123456\"\n}",
							"options": {
								"raw": {
									"language": "json"
								}
							}
						},
						"url": {
							"raw": "{{host}}/users/register",
							"host": [
								"{{host}}"
							],
							"path": [
								"users",
								"register"
							]
						}
					},
					"response": []
				}
			]
		},
		{
			"name": "Cinema",
			"item": [
				{
					"name": "getCinemas",
					"request": {
						"method": "GET",
						"header": [],
						"url": {
							"raw": "{{host}}/cinemas/",
							"host": [
								"{{host}}"
							],
							"path": [
								"cinemas",
								""
							]
						}
					},
					"response": []
				},
				{
					"name": "createCinemaMoive",
					"request": {
						"method": "POST",
						"header": [],
						"body": {
							"mode": "raw",
							"raw": "{\n    \"cinemaId\": 1,\n    \"movieId\": 1\n}",
							"options": {
								"raw": {
									"language": "json"
								}
							}
						},
						"url": {
							"raw": "{{host}}/cinemas/",
							"host": [
								"{{host}}"
							],
							"path": [
								"cinemas",
								""
							]
						}
					},
					"response": []
				},
				{
					"name": "getShowTime",
					"request": {
						"method": "GET",
						"header": [],
						"url": {
							"raw": "{{host}}/cinemas/showtime?movieId=1",
							"host": [
								"{{host}}"
							],
							"path": [
								"cinemas",
								"showtime"
							],
							"query": [
								{
									"key": "movieId",
									"value": "1"
								}
							]
						}
					},
					"response": []
				},
				{
					"name": "getCinepflex",
					"request": {
						"method": "GET",
						"header": [],
						"url": {
							"raw": "{{host}}/cinemas/flex?id=1",
							"host": [
								"{{host}}"
							],
							"path": [
								"cinemas",
								"flex"
							],
							"query": [
								{
									"key": "id",
									"value": "1"
								}
							]
						}
					},
					"response": []
				}
			]
		},
		{
			"name": "Booking",
			"item": [
				{
					"name": "getCinemaByShowtime",
					"request": {
						"method": "GET",
						"header": [],
						"url": {
							"raw": "{{host}}/booking/cinemas?showTimeId=2",
							"host": [
								"{{host}}"
							],
							"path": [
								"booking",
								"cinemas"
							],
							"query": [
								{
									"key": "showTimeId",
									"value": "2"
								}
							]
						}
					},
					"response": []
				},
				{
					"name": "getShowTime",
					"request": {
						"method": "GET",
						"header": [],
						"url": {
							"raw": "{{host}}/booking/",
							"host": [
								"{{host}}"
							],
							"path": [
								"booking",
								""
							]
						}
					},
					"response": []
				},
				{
					"name": "createShowtime",
					"request": {
						"method": "POST",
						"header": [],
						"body": {
							"mode": "raw",
							"raw": "{\n    \"cinemaId\": 1,\n    \"movieId\": 1,\n    \"startTime\": \"2022-05-09T13:56:20.000Z\"\n}",
							"options": {
								"raw": {
									"language": "json"
								}
							}
						},
						"url": {
							"raw": "{{host}}/booking/showtime",
							"host": [
								"{{host}}"
							],
							"path": [
								"booking",
								"showtime"
							]
						}
					},
					"response": []
				},
				{
					"name": "createSeat",
					"request": {
						"method": "POST",
						"header": [],
						"body": {
							"mode": "raw",
							"raw": "{\n    \"name\": \"A1\",\n    \"showTimeId\": 1,\n    \"status\": true,\n    \"price\": 100\n}",
							"options": {
								"raw": {
									"language": "json"
								}
							}
						},
						"url": {
							"raw": "{{host}}/booking/seat",
							"host": [
								"{{host}}"
							],
							"path": [
								"booking",
								"seat"
							]
						}
					},
					"response": []
				},
				{
					"name": "bookTicket",
					"request": {
						"method": "PUT",
						"header": [],
						"body": {
							"mode": "raw",
							"raw": "{\n    \"showTimeId\": 1,\n    \"ticketLists\": [\n        {\n            \"name\": \"A1\"\n        }\n    ]\n}",
							"options": {
								"raw": {
									"language": "json"
								}
							}
						},
						"url": {
							"raw": "{{host}}/booking/ticket",
							"host": [
								"{{host}}"
							],
							"path": [
								"booking",
								"ticket"
							]
						}
					},
					"response": []
				}
			]
		}
	],
	"auth": {
		"type": "apikey",
		"apikey": [
			{
				"key": "value",
				"value": "{{token}}",
				"type": "string"
			},
			{
				"key": "key",
				"value": "Authorization",
				"type": "string"
			}
		]
	},
	"event": [
		{
			"listen": "prerequest",
			"script": {
				"type": "text/javascript",
				"exec": [
					""
				]
			}
		},
		{
			"listen": "test",
			"script": {
				"type": "text/javascript",
				"exec": [
					""
				]
			}
		}
	]
}